{
    "type": "text", 
    "text": "Select",
    "quickReply": { 
      "items": [
        {
          "type": "action", 
          "action": {
            "type": "message",
            "label": "Sushi",
            "text": "Sushi"
          }
        },
        {
          "type": "action",
          "action": {
            "type": "message",
            "label": "Tempura",
            "text": "Tempura"
          }
        },
        {
          "type": "action", 
          "action": {
            "type": "location",
            "label": "Send location"
          }
        }
      ]
    }
  }